{
  "error": "no such element",
  "message": "no such element: Unable to locate element: {\"method\":\"partial link text\",\"selector\":\"Checkout\"}\n  (Session info: headless chrome=102.0.5005.61)",
  "stacktrace": "#0 0x5632dcc37f33 <unknown>\n#1 0x5632dc982118 <unknown>\n#2 0x5632dc9b83f7 <unknown>\n#3 0x5632dc9b85c1 <unknown>\n#4 0x5632dc9eb5c4 <unknown>\n#5 0x5632dc9d5f9d <unknown>\n#6 0x5632dc9e92e4 <unknown>\n#7 0x5632dc9d5e63 <unknown>\n#8 0x5632dc9ab82a <unknown>\n#9 0x5632dc9ac985 <unknown>\n#10 0x5632dcc7c4cd <unknown>\n#11 0x5632dcc805ec <unknown>\n#12 0x5632dcc6671e <unknown>\n#13 0x5632dcc81238 <unknown>\n#14 0x5632dcc5b870 <unknown>\n#15 0x5632dcc9d608 <unknown>\n#16 0x5632dcc9d788 <unknown>\n#17 0x5632dccb7f1d <unknown>\n#18 0x7f7581ed8609 <unknown>\n"
}