[
  {
    "element-6066-11e4-a52e-4f735466cecf": "fd17bf15-8221-422d-96ca-12c30458f649"
  },
  {
    "element-6066-11e4-a52e-4f735466cecf": "57ca3d9e-a10c-4064-917c-dc28cb3d8838"
  },
  {
    "element-6066-11e4-a52e-4f735466cecf": "8f4e64a7-3de4-46c3-a3c2-c73d81da9f41"
  },
  {
    "element-6066-11e4-a52e-4f735466cecf": "0599be70-9fd2-4ccb-a64f-837975fd1a4b"
  }
]