{
  "error": "no such element",
  "message": "no such element: Unable to locate element: {\"method\":\"css selector\",\"selector\":\"#toast-container\"}\n  (Session info: chrome=102.0.5005.61)",
  "stacktrace": "#0 0x556b4bde0f33 <unknown>\n#1 0x556b4bb2b118 <unknown>\n#2 0x556b4bb613f7 <unknown>\n#3 0x556b4bb615c1 <unknown>\n#4 0x556b4bb945c4 <unknown>\n#5 0x556b4bb7ef9d <unknown>\n#6 0x556b4bb922e4 <unknown>\n#7 0x556b4bb7ee63 <unknown>\n#8 0x556b4bb5482a <unknown>\n#9 0x556b4bb55985 <unknown>\n#10 0x556b4be254cd <unknown>\n#11 0x556b4be295ec <unknown>\n#12 0x556b4be0f71e <unknown>\n#13 0x556b4be2a238 <unknown>\n#14 0x556b4be04870 <unknown>\n#15 0x556b4be46608 <unknown>\n#16 0x556b4be46788 <unknown>\n#17 0x556b4be60f1d <unknown>\n#18 0x7f95233d4609 <unknown>\n"
}