[ {
  "uid" : "3a59cc59415f1707",
  "name" : "Edit Membership Request",
  "time" : {
    "start" : 1657631906520,
    "stop" : 1657631907099,
    "duration" : 579
  },
  "status" : "broken",
  "severity" : "normal"
}, {
  "uid" : "636cda627f315fa9",
  "name" : "Edit Membership Request",
  "time" : {
    "start" : 1657693166107,
    "stop" : 1657693166107,
    "duration" : 0
  },
  "status" : "skipped",
  "severity" : "normal"
}, {
  "uid" : "14e62a83090afca9",
  "name" : "Create Membership Request",
  "time" : {
    "start" : 1657693149340,
    "stop" : 1657693166107,
    "duration" : 16767
  },
  "status" : "passed",
  "severity" : "normal"
}, {
  "uid" : "aae98ad1b73c03c0",
  "name" : "End to end scenarios",
  "time" : {
    "start" : 1657632375655,
    "stop" : 1657632376569,
    "duration" : 914
  },
  "status" : "passed",
  "severity" : "normal"
} ]