{
  "total" : 2,
  "items" : [ {
    "uid" : "8e6978abb3bc4a15e782d586cd2e6533",
    "name" : "Ecommerce Automation Project",
    "statistic" : {
      "failed" : 0,
      "broken" : 1,
      "skipped" : 1,
      "passed" : 1,
      "unknown" : 0,
      "total" : 3
    }
  }, {
    "uid" : "2bd274f430d5981a0611ff67c50ecfb7",
    "name" : "Ecommerce End to End Project",
    "statistic" : {
      "failed" : 0,
      "broken" : 0,
      "skipped" : 0,
      "passed" : 1,
      "unknown" : 0,
      "total" : 1
    }
  } ]
}