{
  "error": "no such element",
  "message": "no such element: Unable to locate element: {\"method\":\"partial link text\",\"selector\":\"Checkout\"}\n  (Session info: headless chrome=102.0.5005.61)",
  "stacktrace": "#0 0x55ea64d5df33 <unknown>\n#1 0x55ea64aa8118 <unknown>\n#2 0x55ea64ade3f7 <unknown>\n#3 0x55ea64ade5c1 <unknown>\n#4 0x55ea64b115c4 <unknown>\n#5 0x55ea64afbf9d <unknown>\n#6 0x55ea64b0f2e4 <unknown>\n#7 0x55ea64afbe63 <unknown>\n#8 0x55ea64ad182a <unknown>\n#9 0x55ea64ad2985 <unknown>\n#10 0x55ea64da24cd <unknown>\n#11 0x55ea64da65ec <unknown>\n#12 0x55ea64d8c71e <unknown>\n#13 0x55ea64da7238 <unknown>\n#14 0x55ea64d81870 <unknown>\n#15 0x55ea64dc3608 <unknown>\n#16 0x55ea64dc3788 <unknown>\n#17 0x55ea64dddf1d <unknown>\n#18 0x7f25ebc75609 <unknown>\n"
}