{
  "script": "return (function (elem, options) {\n        elem.scrollIntoView(options);\n    }).apply(null, arguments)",
  "args": [
    {
      "element-6066-11e4-a52e-4f735466cecf": "24616670-1e35-4011-af48-d91c62232fba",
      "ELEMENT": "24616670-1e35-4011-af48-d91c62232fba"
    },
    true
  ]
}