[
  {
    "element-6066-11e4-a52e-4f735466cecf": "4c2f8c46-becf-41c5-8252-06fe1b60da51"
  },
  {
    "element-6066-11e4-a52e-4f735466cecf": "4d56a573-7f39-404d-b482-7289132605e0"
  },
  {
    "element-6066-11e4-a52e-4f735466cecf": "5edab1ae-67c8-47a0-8dba-2a2bb196dc73"
  },
  {
    "element-6066-11e4-a52e-4f735466cecf": "d5140836-5527-4f4e-828c-160f36f27791"
  }
]