[
  {
    "element-6066-11e4-a52e-4f735466cecf": "59eb25e8-9489-4db4-87e7-7e7a37edd3bc"
  },
  {
    "element-6066-11e4-a52e-4f735466cecf": "465c2e48-c05b-4e98-a15f-28d3d7b12d05"
  },
  {
    "element-6066-11e4-a52e-4f735466cecf": "4170fc13-fd93-464a-aec4-00e211f3837f"
  },
  {
    "element-6066-11e4-a52e-4f735466cecf": "fc2fd1d2-f4cb-45f1-921c-7d0caf3c4e11"
  }
]