{
  "uid" : "4b4757e66a1912dae1a509f688f20b0f",
  "name" : "categories",
  "children" : [ {
    "name" : "Test defects",
    "children" : [ {
      "name" : "selector needs to be typeof `string` or `function`",
      "children" : [ {
        "name" : "Edit Membership Request",
        "uid" : "3a59cc59415f1707",
        "parentUid" : "c4c512edabbdc6f15b328ef755322870",
        "status" : "broken",
        "time" : {
          "start" : 1657631906520,
          "stop" : 1657631907099,
          "duration" : 579
        },
        "flaky" : false,
        "newFailed" : false,
        "newPassed" : false,
        "newBroken" : false,
        "retriesCount" : 3,
        "retriesStatusChange" : false,
        "parameters" : [ "chrome-102.0.5005.61" ]
      } ],
      "uid" : "c4c512edabbdc6f15b328ef755322870"
    } ],
    "uid" : "bdbf199525818fae7a8651db9eafe741"
  } ]
}