"Status","Start Time","Stop Time","Duration in ms","Parent Suite","Suite","Sub Suite","Test Class","Test Method","Name","Description"
"broken","Tue Jul 12 18:48:26 IST 2022","Tue Jul 12 18:48:27 IST 2022","579","","Ecommerce Automation Project","","Ecommerce Automation Project","Edit Membership Request","Edit Membership Request",""
"skipped","Wed Jul 13 11:49:26 IST 2022","Wed Jul 13 11:49:26 IST 2022","0","","Ecommerce Automation Project","","Ecommerce Automation Project","Edit Membership Request","Edit Membership Request",""
"passed","Wed Jul 13 11:49:09 IST 2022","Wed Jul 13 11:49:26 IST 2022","16767","","Ecommerce Automation Project","","Ecommerce Automation Project","Create Membership Request","Create Membership Request",""
"passed","Tue Jul 12 18:56:15 IST 2022","Tue Jul 12 18:56:16 IST 2022","914","","Ecommerce End to End Project","","Ecommerce End to End Project","End to end scenarios","End to end scenarios",""
